^C:\USERS\TROND\DROPBOX\HIG15\FUN\COMPONENT ARCHITECTURE\COMPONENT ARCHITECTURE\RELEASE\CAMERA.OBJ|C:\USERS\TROND\DROPBOX\HIG15\FUN\COMPONENT ARCHITECTURE\COMPONENT ARCHITECTURE\RELEASE\CLOCK.OBJ|C:\USERS\TROND\DROPBOX\HIG15\FUN\COMPONENT ARCHITECTURE\COMPONENT ARCHITECTURE\RELEASE\COLOR.OBJ|C:\USERS\TROND\DROPBOX\HIG15\FUN\COMPONENT ARCHITECTURE\COMPONENT ARCHITECTURE\RELEASE\COMPONENT.OBJ|C:\USERS\TROND\DROPBOX\HIG15\FUN\COMPONENT ARCHITECTURE\COMPONENT ARCHITECTURE\RELEASE\COMPONENTFACTORY.OBJ|C:\USERS\TROND\DROPBOX\HIG15\FUN\COMPONENT ARCHITECTURE\COMPONENT ARCHITECTURE\RELEASE\ENGINE.OBJ|C:\USERS\TROND\DROPBOX\HIG15\FUN\COMPONENT ARCHITECTURE\COMPONENT ARCHITECTURE\RELEASE\FREELOOK.OBJ|C:\USERS\TROND\DROPBOX\HIG15\FUN\COMPONENT ARCHITECTURE\COMPONENT ARCHITECTURE\RELEASE\FREEMOVE.OBJ|C:\USERS\TROND\DROPBOX\HIG15\FUN\COMPONENT ARCHITECTURE\COMPONENT ARCHITECTURE\RELEASE\GAMEOBJECT.OBJ|C:\USERS\TROND\DROPBOX\HIG15\FUN\COMPONENT ARCHITECTURE\COMPONENT ARCHITECTURE\RELEASE\GLFWCALLBACKFUNCTIONS.OBJ|C:\USERS\TROND\DROPBOX\HIG15\FUN\COMPONENT ARCHITECTURE\COMPONENT ARCHITECTURE\RELEASE\ICOMPONENT.OBJ|C:\USERS\TROND\DROPBOX\HIG15\FUN\COMPONENT ARCHITECTURE\COMPONENT ARCHITECTURE\RELEASE\IMAGE.OBJ|C:\USERS\TROND\DROPBOX\HIG15\FUN\COMPONENT ARCHITECTURE\COMPONENT ARCHITECTURE\RELEASE\INPUTHANDLER.OBJ|C:\USERS\TROND\DROPBOX\HIG15\FUN\COMPONENT ARCHITECTURE\COMPONENT ARCHITECTURE\RELEASE\LOGMANAGER.OBJ|C:\USERS\TROND\DROPBOX\HIG15\FUN\COMPONENT ARCHITECTURE\COMPONENT ARCHITECTURE\RELEASE\MAIN.OBJ|C:\USERS\TROND\DROPBOX\HIG15\FUN\COMPONENT ARCHITECTURE\COMPONENT ARCHITECTURE\RELEASE\MESH.OBJ|C:\USERS\TROND\DROPBOX\HIG15\FUN\COMPONENT ARCHITECTURE\COMPONENT ARCHITECTURE\RELEASE\MESHRENDERER.OBJ|C:\USERS\TROND\DROPBOX\HIG15\FUN\COMPONENT ARCHITECTURE\COMPONENT ARCHITECTURE\RELEASE\MESHUTILITIES.OBJ|C:\USERS\TROND\DROPBOX\HIG15\FUN\COMPONENT ARCHITECTURE\COMPONENT ARCHITECTURE\RELEASE\MOUSELOOK.OBJ|C:\USERS\TROND\DROPBOX\HIG15\FUN\COMPONENT ARCHITECTURE\COMPONENT ARCHITECTURE\RELEASE\PARTICLE.OBJ|C:\USERS\TROND\DROPBOX\HIG15\FUN\COMPONENT ARCHITECTURE\COMPONENT ARCHITECTURE\RELEASE\PARTICLEEMITTER.OBJ|C:\USERS\TROND\DROPBOX\HIG15\FUN\COMPONENT ARCHITECTURE\COMPONENT ARCHITECTURE\RELEASE\PARTICLEMASTER.OBJ|C:\USERS\TROND\DROPBOX\HIG15\FUN\COMPONENT ARCHITECTURE\COMPONENT ARCHITECTURE\RELEASE\RENDERINGENGINE.OBJ|C:\USERS\TROND\DROPBOX\HIG15\FUN\COMPONENT ARCHITECTURE\COMPONENT ARCHITECTURE\RELEASE\RIGIDBODY.OBJ|C:\USERS\TROND\DROPBOX\HIG15\FUN\COMPONENT ARCHITECTURE\COMPONENT ARCHITECTURE\RELEASE\SHADER.OBJ|C:\USERS\TROND\DROPBOX\HIG15\FUN\COMPONENT ARCHITECTURE\COMPONENT ARCHITECTURE\RELEASE\SHOOTER.OBJ|C:\USERS\TROND\DROPBOX\HIG15\FUN\COMPONENT ARCHITECTURE\COMPONENT ARCHITECTURE\RELEASE\SPRITERENDERER.OBJ|C:\USERS\TROND\DROPBOX\HIG15\FUN\COMPONENT ARCHITECTURE\COMPONENT ARCHITECTURE\RELEASE\STB_IMAGE.OBJ|C:\USERS\TROND\DROPBOX\HIG15\FUN\COMPONENT ARCHITECTURE\COMPONENT ARCHITECTURE\RELEASE\STRINGUTILS.OBJ|C:\USERS\TROND\DROPBOX\HIG15\FUN\COMPONENT ARCHITECTURE\COMPONENT ARCHITECTURE\RELEASE\TEXTURE.OBJ|C:\USERS\TROND\DROPBOX\HIG15\FUN\COMPONENT ARCHITECTURE\COMPONENT ARCHITECTURE\RELEASE\TEXTUREUTILITIES.OBJ|C:\USERS\TROND\DROPBOX\HIG15\FUN\COMPONENT ARCHITECTURE\COMPONENT ARCHITECTURE\RELEASE\TINYXML2.OBJ|C:\USERS\TROND\DROPBOX\HIG15\FUN\COMPONENT ARCHITECTURE\COMPONENT ARCHITECTURE\RELEASE\TINY_OBJ_LOADER.OBJ|C:\USERS\TROND\DROPBOX\HIG15\FUN\COMPONENT ARCHITECTURE\COMPONENT ARCHITECTURE\RELEASE\TRANSFORM.OBJ|C:\USERS\TROND\DROPBOX\HIG15\FUN\COMPONENT ARCHITECTURE\COMPONENT ARCHITECTURE\RELEASE\WINDOW.OBJ|C:\USERS\TROND\DROPBOX\HIG15\FUN\COMPONENT ARCHITECTURE\COMPONENT ARCHITECTURE\RELEASE\XMLUTILITIES.OBJ
C:\WINDOWS\GLOBALIZATION\SORTING\SORTDEFAULT.NLS
C:\USERS\TROND\DROPBOX\HIG15\FUN\COMPONENT ARCHITECTURE\COMPONENT ARCHITECTURE\LIB\GLEW32.LIB
C:\USERS\TROND\DROPBOX\HIG15\FUN\COMPONENT ARCHITECTURE\COMPONENT ARCHITECTURE\LIB\GLEW32S.LIB
C:\USERS\TROND\DROPBOX\HIG15\FUN\COMPONENT ARCHITECTURE\COMPONENT ARCHITECTURE\LIB\OPENGL32.LIB
C:\USERS\TROND\DROPBOX\HIG15\FUN\COMPONENT ARCHITECTURE\COMPONENT ARCHITECTURE\LIB\GLFW3DLL.LIB
C:\USERS\TROND\DROPBOX\HIG15\FUN\COMPONENT ARCHITECTURE\COMPONENT ARCHITECTURE\LIB\LIBBOOST_FILESYSTEM-VC140-MT-1_60.LIB
C:\USERS\TROND\DROPBOX\HIG15\FUN\COMPONENT ARCHITECTURE\COMPONENT ARCHITECTURE\LIB\LIBBOOST_SYSTEM-VC140-MT-1_60.LIB
C:\PROGRAM FILES (X86)\WINDOWS KITS\8.1\LIB\WINV6.3\UM\X86\KERNEL32.LIB
C:\PROGRAM FILES (X86)\WINDOWS KITS\8.1\LIB\WINV6.3\UM\X86\USER32.LIB
C:\PROGRAM FILES (X86)\WINDOWS KITS\8.1\LIB\WINV6.3\UM\X86\GDI32.LIB
C:\PROGRAM FILES (X86)\WINDOWS KITS\8.1\LIB\WINV6.3\UM\X86\WINSPOOL.LIB
C:\PROGRAM FILES (X86)\WINDOWS KITS\8.1\LIB\WINV6.3\UM\X86\COMDLG32.LIB
C:\PROGRAM FILES (X86)\WINDOWS KITS\8.1\LIB\WINV6.3\UM\X86\ADVAPI32.LIB
C:\PROGRAM FILES (X86)\WINDOWS KITS\8.1\LIB\WINV6.3\UM\X86\SHELL32.LIB
C:\PROGRAM FILES (X86)\WINDOWS KITS\8.1\LIB\WINV6.3\UM\X86\OLE32.LIB
C:\PROGRAM FILES (X86)\WINDOWS KITS\8.1\LIB\WINV6.3\UM\X86\OLEAUT32.LIB
C:\PROGRAM FILES (X86)\WINDOWS KITS\8.1\LIB\WINV6.3\UM\X86\UUID.LIB
C:\PROGRAM FILES (X86)\WINDOWS KITS\8.1\LIB\WINV6.3\UM\X86\ODBC32.LIB
C:\PROGRAM FILES (X86)\WINDOWS KITS\8.1\LIB\WINV6.3\UM\X86\ODBCCP32.LIB
C:\USERS\TROND\DROPBOX\HIG15\FUN\COMPONENT ARCHITECTURE\COMPONENT ARCHITECTURE\RELEASE\CAMERA.OBJ
C:\USERS\TROND\DROPBOX\HIG15\FUN\COMPONENT ARCHITECTURE\COMPONENT ARCHITECTURE\RELEASE\CLOCK.OBJ
C:\USERS\TROND\DROPBOX\HIG15\FUN\COMPONENT ARCHITECTURE\COMPONENT ARCHITECTURE\RELEASE\COLOR.OBJ
C:\USERS\TROND\DROPBOX\HIG15\FUN\COMPONENT ARCHITECTURE\COMPONENT ARCHITECTURE\RELEASE\COMPONENT.OBJ
C:\USERS\TROND\DROPBOX\HIG15\FUN\COMPONENT ARCHITECTURE\COMPONENT ARCHITECTURE\RELEASE\COMPONENTFACTORY.OBJ
C:\USERS\TROND\DROPBOX\HIG15\FUN\COMPONENT ARCHITECTURE\COMPONENT ARCHITECTURE\RELEASE\ENGINE.OBJ
C:\USERS\TROND\DROPBOX\HIG15\FUN\COMPONENT ARCHITECTURE\COMPONENT ARCHITECTURE\RELEASE\FREELOOK.OBJ
C:\USERS\TROND\DROPBOX\HIG15\FUN\COMPONENT ARCHITECTURE\COMPONENT ARCHITECTURE\RELEASE\FREEMOVE.OBJ
C:\USERS\TROND\DROPBOX\HIG15\FUN\COMPONENT ARCHITECTURE\COMPONENT ARCHITECTURE\RELEASE\GAMEOBJECT.OBJ
C:\USERS\TROND\DROPBOX\HIG15\FUN\COMPONENT ARCHITECTURE\COMPONENT ARCHITECTURE\RELEASE\GLFWCALLBACKFUNCTIONS.OBJ
C:\USERS\TROND\DROPBOX\HIG15\FUN\COMPONENT ARCHITECTURE\COMPONENT ARCHITECTURE\RELEASE\ICOMPONENT.OBJ
C:\USERS\TROND\DROPBOX\HIG15\FUN\COMPONENT ARCHITECTURE\COMPONENT ARCHITECTURE\RELEASE\IMAGE.OBJ
C:\USERS\TROND\DROPBOX\HIG15\FUN\COMPONENT ARCHITECTURE\COMPONENT ARCHITECTURE\RELEASE\INPUTHANDLER.OBJ
C:\USERS\TROND\DROPBOX\HIG15\FUN\COMPONENT ARCHITECTURE\COMPONENT ARCHITECTURE\RELEASE\LOGMANAGER.OBJ
C:\USERS\TROND\DROPBOX\HIG15\FUN\COMPONENT ARCHITECTURE\COMPONENT ARCHITECTURE\RELEASE\MAIN.OBJ
C:\USERS\TROND\DROPBOX\HIG15\FUN\COMPONENT ARCHITECTURE\COMPONENT ARCHITECTURE\RELEASE\MESH.OBJ
C:\USERS\TROND\DROPBOX\HIG15\FUN\COMPONENT ARCHITECTURE\COMPONENT ARCHITECTURE\RELEASE\MESHRENDERER.OBJ
C:\USERS\TROND\DROPBOX\HIG15\FUN\COMPONENT ARCHITECTURE\COMPONENT ARCHITECTURE\RELEASE\MESHUTILITIES.OBJ
C:\USERS\TROND\DROPBOX\HIG15\FUN\COMPONENT ARCHITECTURE\COMPONENT ARCHITECTURE\RELEASE\MOUSELOOK.OBJ
C:\USERS\TROND\DROPBOX\HIG15\FUN\COMPONENT ARCHITECTURE\COMPONENT ARCHITECTURE\RELEASE\PARTICLE.OBJ
C:\USERS\TROND\DROPBOX\HIG15\FUN\COMPONENT ARCHITECTURE\COMPONENT ARCHITECTURE\RELEASE\PARTICLEEMITTER.OBJ
C:\USERS\TROND\DROPBOX\HIG15\FUN\COMPONENT ARCHITECTURE\COMPONENT ARCHITECTURE\RELEASE\PARTICLEMASTER.OBJ
C:\USERS\TROND\DROPBOX\HIG15\FUN\COMPONENT ARCHITECTURE\COMPONENT ARCHITECTURE\RELEASE\RENDERINGENGINE.OBJ
C:\USERS\TROND\DROPBOX\HIG15\FUN\COMPONENT ARCHITECTURE\COMPONENT ARCHITECTURE\RELEASE\RIGIDBODY.OBJ
C:\USERS\TROND\DROPBOX\HIG15\FUN\COMPONENT ARCHITECTURE\COMPONENT ARCHITECTURE\RELEASE\SHADER.OBJ
C:\USERS\TROND\DROPBOX\HIG15\FUN\COMPONENT ARCHITECTURE\COMPONENT ARCHITECTURE\RELEASE\SHOOTER.OBJ
C:\USERS\TROND\DROPBOX\HIG15\FUN\COMPONENT ARCHITECTURE\COMPONENT ARCHITECTURE\RELEASE\SPRITERENDERER.OBJ
C:\USERS\TROND\DROPBOX\HIG15\FUN\COMPONENT ARCHITECTURE\COMPONENT ARCHITECTURE\RELEASE\STB_IMAGE.OBJ
C:\USERS\TROND\DROPBOX\HIG15\FUN\COMPONENT ARCHITECTURE\COMPONENT ARCHITECTURE\RELEASE\STRINGUTILS.OBJ
C:\USERS\TROND\DROPBOX\HIG15\FUN\COMPONENT ARCHITECTURE\COMPONENT ARCHITECTURE\RELEASE\TEXTURE.OBJ
C:\USERS\TROND\DROPBOX\HIG15\FUN\COMPONENT ARCHITECTURE\COMPONENT ARCHITECTURE\RELEASE\TEXTUREUTILITIES.OBJ
C:\USERS\TROND\DROPBOX\HIG15\FUN\COMPONENT ARCHITECTURE\COMPONENT ARCHITECTURE\RELEASE\TINYXML2.OBJ
C:\USERS\TROND\DROPBOX\HIG15\FUN\COMPONENT ARCHITECTURE\COMPONENT ARCHITECTURE\RELEASE\TINY_OBJ_LOADER.OBJ
C:\USERS\TROND\DROPBOX\HIG15\FUN\COMPONENT ARCHITECTURE\COMPONENT ARCHITECTURE\RELEASE\TRANSFORM.OBJ
C:\USERS\TROND\DROPBOX\HIG15\FUN\COMPONENT ARCHITECTURE\COMPONENT ARCHITECTURE\RELEASE\WINDOW.OBJ
C:\USERS\TROND\DROPBOX\HIG15\FUN\COMPONENT ARCHITECTURE\COMPONENT ARCHITECTURE\RELEASE\XMLUTILITIES.OBJ
C:\PROGRAM FILES (X86)\MICROSOFT VISUAL STUDIO 14.0\VC\BIN\C2.DLL
C:\PROGRAM FILES (X86)\MICROSOFT VISUAL STUDIO 14.0\VC\LIB\MSVCPRT.LIB
C:\PROGRAM FILES (X86)\MICROSOFT VISUAL STUDIO 14.0\VC\LIB\MSVCRT.LIB
C:\PROGRAM FILES (X86)\MICROSOFT VISUAL STUDIO 14.0\VC\LIB\OLDNAMES.LIB
C:\PROGRAM FILES (X86)\MICROSOFT VISUAL STUDIO 14.0\VC\LIB\VCRUNTIME.LIB
C:\PROGRAM FILES (X86)\WINDOWS KITS\10\LIB\10.0.10150.0\UCRT\X86\UCRT.LIB
C:\PROGRAM FILES (X86)\MICROSOFT VISUAL STUDIO 14.0\VC\BIN\1033\LINKUI.DLL
C:\USERS\TROND\DROPBOX\HIG15\FUN\COMPONENT ARCHITECTURE\RELEASE\COMPONENT ARCHITECTURE.IPDB
C:\USERS\TROND\DROPBOX\HIG15\FUN\COMPONENT ARCHITECTURE\RELEASE\COMPONENT ARCHITECTURE.IOBJ
C:\PROGRAM FILES (X86)\WINDOWS KITS\8.1\BIN\X86\RC.EXE
C:\PROGRAM FILES (X86)\MICROSOFT VISUAL STUDIO 14.0\VC\BIN\CVTRES.EXE
C:\PROGRAM FILES (X86)\MICROSOFT VISUAL STUDIO 14.0\VC\BIN\MSPDBSRV.EXE
C:\WINDOWS\SYSTEM32\TZRES.DLL
