# Blender v2.76 (sub 0) OBJ File: ''
# www.blender.org
o quad
v 0.500000 0.000000 -0.500000
v 0.500000 0.000000 0.500000
v -0.500000 0.000000 0.500000
v -0.500000 0.000000 -0.500000
vt 1.000000 0.000000
vt 1.000000 1.000000
vt 0.000100 1.000000
vt 0.000100 0.000100
vn 0.000000 1.000000 0.000000
s 1
f 1/1/1 2/2/1 3/3/1
f 4/4/1 1/1/1 3/3/1
