GL_LOG_FILE log. local time Fri Apr  1 14:26:32 2016

Initializing core engine
Initializing rendering engine
Initializing glfw...done!
Creating window...done!
Rendering engine done!
Initializing the inputhandlers window

Version info:
	Renderer: GeForce GTX 860M/PCIe/SSE2
	OpenGL, version supported 4.4.0

GL Context Params:
	GL_MAX_COMBINED_TEXTURE_IMAGE_UNITS 192
	GL_MAX_CUBE_MAP_TEXTURE_SIZE 16384
	GL_MAX_DRAW_BUFFERS 8
	GL_MAX_FRAGMENT_UNIFORM_COMPONENTS 2048
	GL_MAX_TEXTURE_IMAGE_UNITS 32
	GL_MAX_TEXTURE_SIZE 16384
	GL_MAX_VARYING_FLOATS 124
	GL_MAX_VERTEX_ATTRIBS 16
	GL_MAX_VERTEX_TEXTURE_IMAGE_UNITS 32
	GL_MAX_VERTEX_UNIFORM_COMPONENTS 4096
	GL_MAX_VIEWPORT_DIMS 16384 16384
	GL_STEREO 0

Initializing the components core engine
Loading all textures from res/textures
Creating texture "fire"
Loading image from path "res/textures\fire.png"...loaded!
Creating texture "mh"
Loading image from path "res/textures\mh.jpg"...loaded!
Creating texture "NULL"
Loading image from path "res/textures\NULL.png"...loaded!
Creating texture "smoke"
Loading image from path "res/textures\smoke.png"...loaded!
Creating texture "test"
Loading image from path "res/textures\test.png"...loaded!
Creating texture "test2"
Loading image from path "res/textures\test2.png"...loaded!
Textures loading done!
Loading all meshes from res/meshes
