GL_LOG_FILE log. local time Wed Mar 23 04:37:09 2016

Initializing core engine
Initializing rendering engine
Initializing glfw...done!
Creating window...done!
Rendering engine done!
Initializing the inputhandlers window

Version info:
	Renderer: GeForce GTX 970/PCIe/SSE2
	OpenGL, version supported 4.5.0 NVIDIA 361.91

GL Context Params:
	GL_MAX_COMBINED_TEXTURE_IMAGE_UNITS 192
	GL_MAX_CUBE_MAP_TEXTURE_SIZE 16384
	GL_MAX_DRAW_BUFFERS 8
	GL_MAX_FRAGMENT_UNIFORM_COMPONENTS 4096
	GL_MAX_TEXTURE_IMAGE_UNITS 32
	GL_MAX_TEXTURE_SIZE 16384
	GL_MAX_VARYING_FLOATS 124
	GL_MAX_VERTEX_ATTRIBS 16
	GL_MAX_VERTEX_TEXTURE_IMAGE_UNITS 32
	GL_MAX_VERTEX_UNIFORM_COMPONENTS 4096
	GL_MAX_VIEWPORT_DIMS 16384 16384
	GL_STEREO 0

Initializing the components core engine
Loading all textures from res/images
Creating texture "mh"
Loading image from path "res/images\mh.jpg"...loaded!
Creating texture "NULL"
Loading image from path "res/images\NULL.png"...loaded!
Creating texture "test"
Loading image from path "res/images\test.png"...loaded!
Creating texture "test2"
Loading image from path "res/images\test2.png"...loaded!
Textures loading done!
Loading all meshes from res/meshes
Core engine initialization done!
Creating image of size (100, 200) and color (128, 128, 255, 255)
Changed name from "" to "Stuff1"
Constructing component of type "SpriteRenderer" in gameobject "Stuff1"
Creating copy of gameobject "Stuff1"
Changed name from "" to "Stuff3"
Constructing component of type "SpriteRenderer" in gameobject "Stuff3"
Creating copy of gameobject "Stuff3"
Changed name from "" to "Stuff2"
Constructing component of type "SpriteRenderer" in gameobject "Stuff2"
Creating copy of gameobject "Stuff2"
Changed name from "" to "look"
Constructing component of type "MouseLook" in gameobject "look"
Constructing component of type "Shooter" in gameobject "look"
Constructing component of type "FreeMove" in gameobject "look"
Constructing component of type "Camera" in gameobject "look"
Creating copy of gameobject "look"
Changed name from "" to "cube"
Constructing component of type "MeshRenderer" in gameobject "cube"
Creating copy of gameobject "cube"
FPS: 16
FPS: 57
FPS: 60
Creating copy of gameobject "cube"
Constructing component of type "RigidBody" in gameobject "cube"
Changed name from "cube" to "cube1"
Creating copy of gameobject "cube1"
FPS: 60
FPS: 35
FPS: 31
FPS: 60
FPS: 60
FPS: 60
FPS: 60
FPS: 1
FPS: 32
FPS: 60
FPS: 60
FPS: 60
FPS: 1
FPS: 1
FPS: 1
FPS: 1
FPS: 1
FPS: 1
FPS: 1
FPS: 1
FPS: 1
FPS: 1
FPS: 1
