GL_LOG_FILE log. local time Fri Apr  1 14:08:34 2016

Initializing core engine
Initializing rendering engine
Initializing glfw...done!
Creating window...done!
Rendering engine done!
-------------------------------------------------------------------------------
Failed to find mesh "quad"-------------------------------------------------------------------------------
