^C:\USERS\TROND\DROPBOX\HIG15\FUN\COMPONENT ARCHITECTURE\COMPONENT ARCHITECTURE\COLOR.CPP
/c /I./INCLUDE /ZI /nologo /W3 /WX- /sdl /Od /D _MBCS /Gm /EHsc /RTC1 /MDd /GS /fp:precise /Zc:wchar_t /Zc:forScope /Zc:inline /Fo"X64\DEBUG\\" /Fd"X64\DEBUG\VC140.PDB" /Gd /TP C:\USERS\TROND\DROPBOX\HIG15\FUN\COMPONENT ARCHITECTURE\COMPONENT ARCHITECTURE\COLOR.CPP
^C:\USERS\TROND\DROPBOX\HIG15\FUN\COMPONENT ARCHITECTURE\COMPONENT ARCHITECTURE\COMPONENT.CPP
/c /I./INCLUDE /ZI /nologo /W3 /WX- /sdl /Od /D _MBCS /Gm /EHsc /RTC1 /MDd /GS /fp:precise /Zc:wchar_t /Zc:forScope /Zc:inline /Fo"X64\DEBUG\\" /Fd"X64\DEBUG\VC140.PDB" /Gd /TP C:\USERS\TROND\DROPBOX\HIG15\FUN\COMPONENT ARCHITECTURE\COMPONENT ARCHITECTURE\COMPONENT.CPP
^C:\USERS\TROND\DROPBOX\HIG15\FUN\COMPONENT ARCHITECTURE\COMPONENT ARCHITECTURE\COMPONENTFACTORY.CPP
/c /I./INCLUDE /ZI /nologo /W3 /WX- /sdl /Od /D _MBCS /Gm /EHsc /RTC1 /MDd /GS /fp:precise /Zc:wchar_t /Zc:forScope /Zc:inline /Fo"X64\DEBUG\\" /Fd"X64\DEBUG\VC140.PDB" /Gd /TP C:\USERS\TROND\DROPBOX\HIG15\FUN\COMPONENT ARCHITECTURE\COMPONENT ARCHITECTURE\COMPONENTFACTORY.CPP
^C:\USERS\TROND\DROPBOX\HIG15\FUN\COMPONENT ARCHITECTURE\COMPONENT ARCHITECTURE\ENGINE.CPP
/c /I./INCLUDE /ZI /nologo /W3 /WX- /sdl /Od /D _MBCS /Gm /EHsc /RTC1 /MDd /GS /fp:precise /Zc:wchar_t /Zc:forScope /Zc:inline /Fo"X64\DEBUG\\" /Fd"X64\DEBUG\VC140.PDB" /Gd /TP C:\USERS\TROND\DROPBOX\HIG15\FUN\COMPONENT ARCHITECTURE\COMPONENT ARCHITECTURE\ENGINE.CPP
^C:\USERS\TROND\DROPBOX\HIG15\FUN\COMPONENT ARCHITECTURE\COMPONENT ARCHITECTURE\GAMEOBJECT.CPP
/c /I./INCLUDE /ZI /nologo /W3 /WX- /sdl /Od /D _MBCS /Gm /EHsc /RTC1 /MDd /GS /fp:precise /Zc:wchar_t /Zc:forScope /Zc:inline /Fo"X64\DEBUG\\" /Fd"X64\DEBUG\VC140.PDB" /Gd /TP C:\USERS\TROND\DROPBOX\HIG15\FUN\COMPONENT ARCHITECTURE\COMPONENT ARCHITECTURE\GAMEOBJECT.CPP
^C:\USERS\TROND\DROPBOX\HIG15\FUN\COMPONENT ARCHITECTURE\COMPONENT ARCHITECTURE\GLFWCALLBACKFUNCTIONS.CPP
/c /I./INCLUDE /ZI /nologo /W3 /WX- /sdl /Od /D _MBCS /Gm /EHsc /RTC1 /MDd /GS /fp:precise /Zc:wchar_t /Zc:forScope /Zc:inline /Fo"X64\DEBUG\\" /Fd"X64\DEBUG\VC140.PDB" /Gd /TP C:\USERS\TROND\DROPBOX\HIG15\FUN\COMPONENT ARCHITECTURE\COMPONENT ARCHITECTURE\GLFWCALLBACKFUNCTIONS.CPP
^C:\USERS\TROND\DROPBOX\HIG15\FUN\COMPONENT ARCHITECTURE\COMPONENT ARCHITECTURE\ICOMPONENT.CPP
/c /I./INCLUDE /ZI /nologo /W3 /WX- /sdl /Od /D _MBCS /Gm /EHsc /RTC1 /MDd /GS /fp:precise /Zc:wchar_t /Zc:forScope /Zc:inline /Fo"X64\DEBUG\\" /Fd"X64\DEBUG\VC140.PDB" /Gd /TP C:\USERS\TROND\DROPBOX\HIG15\FUN\COMPONENT ARCHITECTURE\COMPONENT ARCHITECTURE\ICOMPONENT.CPP
^C:\USERS\TROND\DROPBOX\HIG15\FUN\COMPONENT ARCHITECTURE\COMPONENT ARCHITECTURE\IMAGE.CPP
/c /I./INCLUDE /ZI /nologo /W3 /WX- /sdl /Od /D _MBCS /Gm /EHsc /RTC1 /MDd /GS /fp:precise /Zc:wchar_t /Zc:forScope /Zc:inline /Fo"X64\DEBUG\\" /Fd"X64\DEBUG\VC140.PDB" /Gd /TP C:\USERS\TROND\DROPBOX\HIG15\FUN\COMPONENT ARCHITECTURE\COMPONENT ARCHITECTURE\IMAGE.CPP
^C:\USERS\TROND\DROPBOX\HIG15\FUN\COMPONENT ARCHITECTURE\COMPONENT ARCHITECTURE\MAIN.CPP
/c /I./INCLUDE /ZI /nologo /W3 /WX- /sdl /Od /D _MBCS /Gm /EHsc /RTC1 /MDd /GS /fp:precise /Zc:wchar_t /Zc:forScope /Zc:inline /Fo"X64\DEBUG\\" /Fd"X64\DEBUG\VC140.PDB" /Gd /TP C:\USERS\TROND\DROPBOX\HIG15\FUN\COMPONENT ARCHITECTURE\COMPONENT ARCHITECTURE\MAIN.CPP
^C:\USERS\TROND\DROPBOX\HIG15\FUN\COMPONENT ARCHITECTURE\COMPONENT ARCHITECTURE\MAPKEY.CPP
/c /I./INCLUDE /ZI /nologo /W3 /WX- /sdl /Od /D _MBCS /Gm /EHsc /RTC1 /MDd /GS /fp:precise /Zc:wchar_t /Zc:forScope /Zc:inline /Fo"X64\DEBUG\\" /Fd"X64\DEBUG\VC140.PDB" /Gd /TP C:\USERS\TROND\DROPBOX\HIG15\FUN\COMPONENT ARCHITECTURE\COMPONENT ARCHITECTURE\MAPKEY.CPP
^C:\USERS\TROND\DROPBOX\HIG15\FUN\COMPONENT ARCHITECTURE\COMPONENT ARCHITECTURE\RENDERINGENGINE.CPP
/c /I./INCLUDE /ZI /nologo /W3 /WX- /sdl /Od /D _MBCS /Gm /EHsc /RTC1 /MDd /GS /fp:precise /Zc:wchar_t /Zc:forScope /Zc:inline /Fo"X64\DEBUG\\" /Fd"X64\DEBUG\VC140.PDB" /Gd /TP C:\USERS\TROND\DROPBOX\HIG15\FUN\COMPONENT ARCHITECTURE\COMPONENT ARCHITECTURE\RENDERINGENGINE.CPP
^C:\USERS\TROND\DROPBOX\HIG15\FUN\COMPONENT ARCHITECTURE\COMPONENT ARCHITECTURE\SHADER.CPP
/c /I./INCLUDE /ZI /nologo /W3 /WX- /sdl /Od /D _MBCS /Gm /EHsc /RTC1 /MDd /GS /fp:precise /Zc:wchar_t /Zc:forScope /Zc:inline /Fo"X64\DEBUG\\" /Fd"X64\DEBUG\VC140.PDB" /Gd /TP C:\USERS\TROND\DROPBOX\HIG15\FUN\COMPONENT ARCHITECTURE\COMPONENT ARCHITECTURE\SHADER.CPP
^C:\USERS\TROND\DROPBOX\HIG15\FUN\COMPONENT ARCHITECTURE\COMPONENT ARCHITECTURE\SPRITERENDERER.CPP
/c /I./INCLUDE /ZI /nologo /W3 /WX- /sdl /Od /D _MBCS /Gm /EHsc /RTC1 /MDd /GS /fp:precise /Zc:wchar_t /Zc:forScope /Zc:inline /Fo"X64\DEBUG\\" /Fd"X64\DEBUG\VC140.PDB" /Gd /TP C:\USERS\TROND\DROPBOX\HIG15\FUN\COMPONENT ARCHITECTURE\COMPONENT ARCHITECTURE\SPRITERENDERER.CPP
^C:\USERS\TROND\DROPBOX\HIG15\FUN\COMPONENT ARCHITECTURE\COMPONENT ARCHITECTURE\STB_IMAGE.CPP
/c /I./INCLUDE /ZI /nologo /W3 /WX- /sdl /Od /D _MBCS /Gm /EHsc /RTC1 /MDd /GS /fp:precise /Zc:wchar_t /Zc:forScope /Zc:inline /Fo"X64\DEBUG\\" /Fd"X64\DEBUG\VC140.PDB" /Gd /TP C:\USERS\TROND\DROPBOX\HIG15\FUN\COMPONENT ARCHITECTURE\COMPONENT ARCHITECTURE\STB_IMAGE.CPP
^C:\USERS\TROND\DROPBOX\HIG15\FUN\COMPONENT ARCHITECTURE\COMPONENT ARCHITECTURE\STRINGUTILS.CPP
/c /I./INCLUDE /ZI /nologo /W3 /WX- /sdl /Od /D _MBCS /Gm /EHsc /RTC1 /MDd /GS /fp:precise /Zc:wchar_t /Zc:forScope /Zc:inline /Fo"X64\DEBUG\\" /Fd"X64\DEBUG\VC140.PDB" /Gd /TP C:\USERS\TROND\DROPBOX\HIG15\FUN\COMPONENT ARCHITECTURE\COMPONENT ARCHITECTURE\STRINGUTILS.CPP
^C:\USERS\TROND\DROPBOX\HIG15\FUN\COMPONENT ARCHITECTURE\COMPONENT ARCHITECTURE\TEXTURE.CPP
/c /I./INCLUDE /ZI /nologo /W3 /WX- /sdl /Od /D _MBCS /Gm /EHsc /RTC1 /MDd /GS /fp:precise /Zc:wchar_t /Zc:forScope /Zc:inline /Fo"X64\DEBUG\\" /Fd"X64\DEBUG\VC140.PDB" /Gd /TP C:\USERS\TROND\DROPBOX\HIG15\FUN\COMPONENT ARCHITECTURE\COMPONENT ARCHITECTURE\TEXTURE.CPP
^C:\USERS\TROND\DROPBOX\HIG15\FUN\COMPONENT ARCHITECTURE\COMPONENT ARCHITECTURE\TINYXML2.CPP
/c /I./INCLUDE /ZI /nologo /W3 /WX- /sdl /Od /D _MBCS /Gm /EHsc /RTC1 /MDd /GS /fp:precise /Zc:wchar_t /Zc:forScope /Zc:inline /Fo"X64\DEBUG\\" /Fd"X64\DEBUG\VC140.PDB" /Gd /TP C:\USERS\TROND\DROPBOX\HIG15\FUN\COMPONENT ARCHITECTURE\COMPONENT ARCHITECTURE\TINYXML2.CPP
^C:\USERS\TROND\DROPBOX\HIG15\FUN\COMPONENT ARCHITECTURE\COMPONENT ARCHITECTURE\TRANSFORM.CPP
/c /I./INCLUDE /ZI /nologo /W3 /WX- /sdl /Od /D _MBCS /Gm /EHsc /RTC1 /MDd /GS /fp:precise /Zc:wchar_t /Zc:forScope /Zc:inline /Fo"X64\DEBUG\\" /Fd"X64\DEBUG\VC140.PDB" /Gd /TP C:\USERS\TROND\DROPBOX\HIG15\FUN\COMPONENT ARCHITECTURE\COMPONENT ARCHITECTURE\TRANSFORM.CPP
^C:\USERS\TROND\DROPBOX\HIG15\FUN\COMPONENT ARCHITECTURE\COMPONENT ARCHITECTURE\WINDOW.CPP
/c /I./INCLUDE /ZI /nologo /W3 /WX- /sdl /Od /D _MBCS /Gm /EHsc /RTC1 /MDd /GS /fp:precise /Zc:wchar_t /Zc:forScope /Zc:inline /Fo"X64\DEBUG\\" /Fd"X64\DEBUG\VC140.PDB" /Gd /TP C:\USERS\TROND\DROPBOX\HIG15\FUN\COMPONENT ARCHITECTURE\COMPONENT ARCHITECTURE\WINDOW.CPP
